<?xml version="1.0" encoding="UTF-8" standalone="no"?>
<!-- Created with Inkscape (http://www.inkscape.org/) -->

<svg
   version="1.1"
   id="svg1"
   width="624.42279"
   height="452.87521"
   viewBox="0 0 624.42281 452.87522"
   xmlns="http://www.w3.org/2000/svg"
   xmlns:svg="http://www.w3.org/2000/svg">
  <defs
     id="defs1">
    <clipPath
       clipPathUnits="userSpaceOnUse"
       id="clipPath31">
      <path
         d="M -73.260002,-267.54001 H 133.61999 V 115.66 H -73.260002 Z"
         transform="translate(2.3333332e-6)"
         clip-rule="evenodd"
         id="path31" />
    </clipPath>
    <clipPath
       clipPathUnits="userSpaceOnUse"
       id="clipPath33">
      <path
         d="M -80.779999,-82.730003 H 148.02 V 377.10999 H -80.779999 Z"
         transform="translate(-3.6666679e-6)"
         clip-rule="evenodd"
         id="path33" />
    </clipPath>
    <clipPath
       clipPathUnits="userSpaceOnUse"
       id="clipPath35">
      <path
         d="M -168.63,-303.79001 H 50.57 V 79.410004 h -219.2 z"
         transform="translate(2.0333333e-5)"
         clip-rule="evenodd"
         id="path35" />
    </clipPath>
  </defs>
  <g
     id="g28"
     transform="translate(-4075.1546,-170.49002)">
    <path
       id="path30"
       d="M 0,0 V -54.919998 H 91.809998 V -89.459999 H 0 V -143.09 h 116.64 v -36.27 H -45.09 V 36.27 h 166.3 V 0 Z"
       style="fill:#23455c;fill-opacity:1;fill-rule:nonzero;stroke:none"
       transform="translate(4121.8074,416.1)"
       clip-path="url(#clipPath31)" />
    <path
       id="path32"
       d="M 0,0 H -47.02 V 347.70001 H 0 Z M 114.4,0 H 67.379997 V 347.70001 H 114.4 Z"
       style="fill:#23455c;fill-opacity:1;fill-rule:nonzero;stroke:none"
       transform="translate(4336.2074,170.49002)"
       clip-path="url(#clipPath33)" />
    <path
       id="path34"
       d="M 0,0 H 46.720001 L -32.009998,-215.61 H -85.900002 L -164.61999,0 H -118.57 l 17.64,-52.610001 h 83.300001 z M -89.5,-85.870003 -68.919998,-147.31 -59.77,-179.34 h 0.650001 l 9.799999,32.68 20.58,60.789997 z"
       style="fill:#23455c;fill-opacity:1;fill-rule:nonzero;stroke:none"
       transform="translate(4652.8574,452.35)"
       clip-path="url(#clipPath35)" />
    <path
       id="path36"
       d="m 4114.1546,555.63079 v 33.21875 c -2.4844,-8.23437 -9.0625,-13.07812 -18.0313,-13.07812 -13.0937,0 -20.9687,8.875 -20.9687,23.79687 0,14.90625 7.875,23.79688 20.9687,23.79688 9.1407,0 15.7344,-4.95313 18.1094,-13.28125 l 0.094,12.35937 h 2.375 v -66.8125 z m -17.6719,65.4375 c -11.7969,0 -18.7656,-7.95312 -18.7656,-21.5 0,-13.54687 6.9687,-21.59375 18.7656,-21.59375 10.7031,0 17.6719,8.14063 17.6719,21.21875 v 0.73438 c 0,13.1875 -7.0469,21.14062 -17.6719,21.14062 z m 54.2774,-45.29687 c -13.4532,0 -21.6094,8.96875 -21.6094,23.79687 0,14.82813 8.1562,23.79688 21.6094,23.79688 13.3593,0 21.4062,-8.96875 21.4062,-23.79688 0,-14.82812 -8.0469,-23.79687 -21.4062,-23.79687 z m 0,2.20312 c 11.7031,0 18.8437,8.14063 18.8437,21.59375 0,13.45313 -7.1406,21.59375 -18.8437,21.59375 -11.8125,0 -19.0469,-8.14062 -19.0469,-21.59375 0,-13.45312 7.2344,-21.59375 19.0469,-21.59375 z m 52.707,-2.20312 c -13.3594,0 -21.2344,8.96875 -21.2344,23.79687 0,14.82813 7.6875,23.79688 21.0625,23.79688 9.3281,0 16.9219,-5.21875 18.75,-13.45313 l -2.2812,-0.82812 c -1.2813,7.40625 -8.2344,11.98437 -16.4688,11.98437 -11.8125,0 -18.5,-8.04687 -18.5,-21.5 0,-13.45312 6.9688,-21.59375 18.6719,-21.59375 8.1562,0 13.9219,4.10938 15.9219,11.4375 l 2.2968,-1.20312 c -2.3749,-7.95313 -9.0625,-12.4375 -18.2187,-12.4375 z m 64.5234,0.92187 v 27.26563 c 0,7.5 -5.9375,17.10937 -18.1093,17.10937 -8.8907,0 -14.0157,-4.9375 -14.0157,-14.54687 v -29.82813 h -2.5625 v 30.375 c 0,10.60938 6.2344,16.29688 16.1094,16.29688 9.1563,0 16.1094,-4.67188 18.5781,-11.8125 l 0.1875,10.89062 h 2.375 v -45.75 z m 73.9454,-1.10937 c -8.9688,0 -16.3751,5.125 -18.5782,12.54687 -1.6406,-8.0625 -7.9531,-12.35937 -16.6562,-12.35937 -8.5938,0 -15.6406,4.67187 -18.2032,11.79687 l -0.094,-10.875 h -2.375 v 45.75 h 2.5625 v -27 c 0,-9.79687 7.8594,-17.46875 17.75,-17.46875 8.9687,0 14.9219,5.29688 14.9219,14.8125 v 29.65625 h 2.5468 v -27.26562 c 0,-9.53125 7.6876,-17.29688 17.7657,-17.29688 8.9687,0 14.9062,5.20313 14.9062,14.73438 v 29.64062 h 2.5625 v -29.92187 c 0,-10.79688 -6.9531,-16.75 -17.1093,-16.75 z m 70.0078,23.79687 c 0,-14.45312 -7.2188,-23.60937 -19.5782,-23.60937 -13,0 -20.6875,8.875 -20.6875,23.79687 0,14.90625 7.875,23.79688 21.2344,23.79688 8.6094,0 15.2813,-4.03125 18.5781,-10.71875 l -2.0937,-1.09375 c -2.8438,5.95312 -9.0625,9.51562 -16.4844,9.51562 -11.4375,0 -18.2031,-7.5 -18.6719,-20.125 h 37.625 c 0,-0.46875 0.078,-1.01562 0.078,-1.5625 z m -19.5782,-21.40625 c 10.7969,0 16.8438,7.76563 17.2032,20.57813 h -35.3282 c 0.375,-12.8125 6.9688,-20.57813 18.125,-20.57813 z m 52.625,-2.20312 c -8.6875,0 -15.7343,4.67187 -18.2968,11.79687 l -0.094,-10.875 h -2.375 v 45.75 h 2.5625 v -26.90625 c 0,-9.96875 7.8594,-17.5625 17.8438,-17.5625 9.0625,0 15,5.29688 15,15.1875 v 29.28125 h 2.5625 v -29.92187 c 0,-10.79688 -6.7657,-16.75 -17.2032,-16.75 z m 54.4571,41.90625 c -2.2032,2.29687 -4.7657,3.39062 -8.0469,3.39062 -6.0469,0 -8.9688,-3.5625 -8.9688,-10.34375 v -31.84375 h 17.4688 v -2.1875 h -17.4688 v -12.45312 l -2.5625,0.73437 v 11.71875 h -9.1562 v 2.1875 h 9.1562 v 32.03125 c 0,8.32813 4.0157,12.45313 11.25,12.45313 3.9375,0 7.3282,-1.5625 9.4219,-3.57813 z m 46.125,3.48437 c -2.9219,0 -4.7657,-1.92187 -4.7657,-5.95312 v -24.51563 c 0,-9.79687 -6.0312,-14.92187 -16.375,-14.92187 -9.1562,0 -15.0156,3.75 -17.75,11.15625 l 2.0157,1.46875 c 2.6406,-7.3125 7.7656,-10.42188 15.7343,-10.42188 8.9688,0 13.8125,4.84375 13.8125,12.89063 v 5.125 l -15.4531,2.84375 c -11.9062,2.1875 -17.0312,6.3125 -17.0312,13.45312 0,7.04688 5.5781,11.07813 14.5468,11.07813 7.1407,0 15.2032,-2.9375 17.9375,-8.79688 0,7.32813 3.6719,8.79688 6.9688,8.79688 1.6406,0 2.7344,-0.28125 3.6562,-0.82813 l 0.1719,-2.10937 c -0.8125,0.54687 -2.1875,0.73437 -3.4687,0.73437 z m -24.7969,-0.0937 c -7.7813,0 -12.3594,-3.20312 -12.3594,-8.78125 0,-5.76562 4.2969,-9.42187 15.5625,-11.4375 l 14.2656,-2.65625 v 10.15625 c 0,8.875 -10.3281,12.71875 -17.4687,12.71875 z m 59.2109,-3.39062 c -2.2031,2.29687 -4.7656,3.39062 -8.0468,3.39062 -6.0469,0 -8.9688,-3.5625 -8.9688,-10.34375 v -31.84375 h 17.4688 v -2.1875 h -17.4688 v -12.45312 l -2.5625,0.73437 v 11.71875 h -9.1562 v 2.1875 h 9.1562 v 32.03125 c 0,8.32813 4.0156,12.45313 11.25,12.45313 3.9375,0 7.3281,-1.5625 9.4219,-3.57813 z m 10.2578,-49.95313 c 1.5469,0 2.6407,-1.01562 2.6407,-2.65625 0,-1.5625 -1.0938,-2.65625 -2.6407,-2.65625 -1.6562,0 -2.75,1.09375 -2.75,2.65625 0,1.64063 1.0938,2.65625 2.75,2.65625 z m 1.2813,8.96875 h -2.5625 v 45.75 h 2.5625 z m 34.2227,-0.92187 c -13.4532,0 -21.6094,8.96875 -21.6094,23.79687 0,14.82813 8.1562,23.79688 21.6094,23.79688 13.3593,0 21.4062,-8.96875 21.4062,-23.79688 0,-14.82812 -8.0469,-23.79687 -21.4062,-23.79687 z m 0,2.20312 c 11.7031,0 18.8437,8.14063 18.8437,21.59375 0,13.45313 -7.1406,21.59375 -18.8437,21.59375 -11.8126,0 -19.0469,-8.14062 -19.0469,-21.59375 0,-13.45312 7.2343,-21.59375 19.0469,-21.59375 z m 55.3632,-2.20312 c -8.6875,0 -15.7343,4.67187 -18.2968,11.79687 l -0.094,-10.875 h -2.375 v 45.75 h 2.5625 v -26.90625 c 0,-9.96875 7.8594,-17.5625 17.8438,-17.5625 9.0625,0 14.9999,5.29688 14.9999,15.1875 v 29.28125 h 2.5625 v -29.92187 c 0,-10.79688 -6.7656,-16.75 -17.2031,-16.75 z m 0,0"
       style="fill:#23455c;fill-opacity:1;fill-rule:nonzero;stroke:none;stroke-width:0.572"
       aria-label="documentation" />
  </g>
</svg>
