<?xml version="1.0" encoding="UTF-8" standalone="no"?>
<!-- Created with Inkscape (http://www.inkscape.org/) -->

<svg
   version="1.1"
   id="svg1"
   width="793.59998"
   height="793.60004"
   viewBox="0 0 793.6 793.60005"
   xmlns="http://www.w3.org/2000/svg"
   xmlns:svg="http://www.w3.org/2000/svg">
  <defs
     id="defs1">
    <clipPath
       clipPathUnits="userSpaceOnUse"
       id="clipPath17">
      <path
         d="M -73.260002,-267.54001 H 133.61999 V 115.66 H -73.260002 Z"
         transform="translate(-4.3333339e-6)"
         clip-rule="evenodd"
         id="path17" />
    </clipPath>
    <clipPath
       clipPathUnits="userSpaceOnUse"
       id="clipPath19">
      <path
         d="M -80.779999,-82.730003 H 148.02 V 377.10999 H -80.779999 Z"
         transform="translate(-1.0333334e-5)"
         clip-rule="evenodd"
         id="path19" />
    </clipPath>
    <clipPath
       clipPathUnits="userSpaceOnUse"
       id="clipPath21">
      <path
         d="M -168.63,-303.79001 H 50.57 V 79.410004 h -219.2 z"
         transform="translate(1.3666667e-5)"
         clip-rule="evenodd"
         id="path21" />
    </clipPath>
  </defs>
  <g
     id="g14"
     transform="translate(-2007.7315,-6.4799624)">
    <path
       id="path15"
       d="m 2007.7315,6.4799624 h 793.6 V 800.07997 h -793.6 z"
       style="fill:#23455c;fill-opacity:1;fill-rule:nonzero;stroke:none" />
    <path
       id="path16"
       d="M 0,0 V -54.919998 H 91.809998 V -89.459999 H 0 V -143.09 h 116.64 v -36.27 H -45.09 V 36.27 h 166.3 V 0 Z"
       style="fill:#ffffff;fill-opacity:1;fill-rule:nonzero;stroke:none"
       transform="translate(2150.2715,481.21996)"
       clip-path="url(#clipPath17)" />
    <path
       id="path18"
       d="M 0,0 H -47.02 V 347.70001 H 0 Z M 114.4,0 H 67.379997 V 347.70001 H 114.4 Z"
       style="fill:#ffffff;fill-opacity:1;fill-rule:nonzero;stroke:none"
       transform="translate(2364.6715,235.60996)"
       clip-path="url(#clipPath19)" />
    <path
       id="path20"
       d="M 0,0 H 46.720001 L -32.009998,-215.61 H -85.900002 L -164.61999,0 H -118.57 l 17.64,-52.610001 h 83.300001 z M -89.5,-85.870003 -68.919998,-147.31 -59.77,-179.34 h 0.650001 l 9.799999,32.68 20.58,60.789997 z"
       style="fill:#ffffff;fill-opacity:1;fill-rule:nonzero;stroke:none"
       transform="translate(2681.3215,517.46996)"
       clip-path="url(#clipPath21)" />
  </g>
</svg>
