<?xml version="1.0" encoding="UTF-8" standalone="no"?>
<!-- Created with Inkscape (http://www.inkscape.org/) -->

<svg
   version="1.1"
   id="svg1"
   width="622.86005"
   height="347.70001"
   viewBox="0 0 622.86007 347.70002"
   xmlns="http://www.w3.org/2000/svg"
   xmlns:svg="http://www.w3.org/2000/svg">
  <defs
     id="defs1">
    <clipPath
       clipPathUnits="userSpaceOnUse"
       id="clipPath3">
      <path
         d="M -73.260002,-267.54001 H 133.61999 V 115.66 H -73.260002 Z"
         clip-rule="evenodd"
         id="path3" />
    </clipPath>
    <clipPath
       clipPathUnits="userSpaceOnUse"
       id="clipPath5">
      <path
         d="M -80.779999,-82.730003 H 148.02 V 377.10999 H -80.779999 Z"
         transform="translate(3e-6)"
         clip-rule="evenodd"
         id="path5" />
    </clipPath>
    <clipPath
       clipPathUnits="userSpaceOnUse"
       id="clipPath7">
      <path
         d="M -168.63,-303.79001 H 50.57 V 79.410004 h -219.2 z"
         transform="translate(-3e-6)"
         clip-rule="evenodd"
         id="path7" />
    </clipPath>
  </defs>
  <g
     id="g1"
     transform="translate(-261.92999,-229.29)">
    <path
       id="path2"
       d="M 0,0 V -54.919998 H 91.809998 V -89.459999 H 0 V -143.09 h 116.64 v -36.27 H -45.09 V 36.27 h 166.3 V 0 Z"
       style="fill:#23455c;fill-opacity:1;fill-rule:nonzero;stroke:none"
       transform="translate(307.01999,474.9)"
       clip-path="url(#clipPath3)" />
    <path
       id="path4"
       d="M 0,0 H -47.02 V 347.70001 H 0 Z M 114.4,0 H 67.379997 V 347.70001 H 114.4 Z"
       style="fill:#23455c;fill-opacity:1;fill-rule:nonzero;stroke:none"
       transform="translate(521.41998,229.29)"
       clip-path="url(#clipPath5)" />
    <path
       id="path6"
       d="M 0,0 H 46.720001 L -32.009998,-215.61 H -85.900002 L -164.61999,0 H -118.57 l 17.64,-52.610001 h 83.300001 z M -89.5,-85.870003 -68.919998,-147.31 -59.77,-179.34 h 0.650001 l 9.799999,32.68 20.58,60.789997 z"
       style="fill:#23455c;fill-opacity:1;fill-rule:nonzero;stroke:none"
       transform="translate(838.07001,511.15)"
       clip-path="url(#clipPath7)" />
  </g>
</svg>
